1007,Dharmender,Kaushik,dkaushik@ex2india.com
1052,Harish,Bhati,hbhati@ex2india.com
1059,Suraj,Kumar,skumar@ex2india.com
1060,Aruna,Singh,asingh@ex2india.com
1079,Rishikant,Kumar,rikumar@ex2india.com
1089,Gaurav,Solanki,dsolanki@ex2india.com
1125,Aakash,Sharma,aasharma@ex2india.com
1131,Arup,Kumar Gupta,akgupta@ex2india.com
1136,Rishab,Garg,rgarg@ex2india.com
1015,Mayank,Dixit,mdixit@ex2india.com