{
    "serverError":"Server Error",
    "unauthorizedError":"Unauthorized",
    "forbiddenError":"Forbidden",
    "noUserFound":"No User found",
    "alreadyTaken":"Already Taken",
    "invalidCredError": "Invalid Credentials",
    "invalidRole":"Invalid Role",
    "opSuccess":"Operation Successful"
}